<svg id="グループ_9" data-name="グループ 9" xmlns="http://www.w3.org/2000/svg" width="23" height="23.002" viewBox="0 0 23 23.002">
  <rect id="長方形_37" data-name="長方形 37" width="23" height="22.787" rx="5" transform="translate(0 0)" fill="#37a427"/>
  <g id="葉っぱ" transform="matrix(0.985, 0.174, -0.174, 0.985, 5.674, 2.907)">
    <path id="パス_1" data-name="パス 1" d="M0,0C0,.005,0,0,0,0Z" transform="translate(0.764 17.811)" fill="#fff"/>
    <path id="パス_2" data-name="パス 2" d="M14.583.062c-.223-.148-.784.017-1.042.054-.2.028-.392.063-.588.095l-.019,0c-.2.032-.4.061-.6.1-.987.178-1.968.4-2.935.663-.617.17-1.239.362-1.855.578l-.071.026q-.341.121-.679.254c-.146.058-.292.117-.439.18-.115.049-.23.1-.344.152s-.234.108-.35.165q-.218.106-.433.218c-.086.045-.171.092-.256.14q-.255.141-.5.293c-.075.046-.148.094-.222.141q-.251.163-.493.338c-.076.056-.152.113-.227.17s-.159.114-.235.176A7.167,7.167,0,0,0,2.216,4.882,7.212,7.212,0,0,0,1.09,6.952v0q-.076.212-.141.429l-.008.029Q.877,7.62.825,7.83l-.007.028q-.053.214-.1.43h0A13.524,13.524,0,0,0,.5,11.654c.037.7.148,1.389.242,2.084a1.747,1.747,0,0,1-.12.78q-.182.6-.339,1.21-.116.451-.218.9a1,1,0,0,0,.043.806c.1.164.375.4.593.36a.118.118,0,0,1,.054,0,.062.062,0,0,1,.016-.023c.027-.03.028-.15.035-.189a27.145,27.145,0,0,1,2.26-6.793A17.407,17.407,0,0,1,5.178,7.428a11.774,11.774,0,0,1,1.408-1.46c.041-.035.237-.246.284-.238.129.023.122.336.1.417a1.258,1.258,0,0,1-.316.436q-.232.27-.453.548a16.148,16.148,0,0,0-2.29,3.881A16.764,16.764,0,0,0,3.2,13.131c-.082.31-.154.621-.222.934-.06.277-.3.823.015,1.022.178.114.492.044.693.033.261-.014.523-.032.783-.057.143-.013.286-.034.428-.052h0q.374-.045.745-.111l.127-.023c.111-.02.223-.036.333-.06a9.833,9.833,0,0,0,3.483-1.432,7.848,7.848,0,0,0,2.631-2.954,13.129,13.129,0,0,0,1.123-3.739c.195-1.16.291-2.331.431-3.5a7.53,7.53,0,0,1,.447-1.9c.091-.229.194-.452.3-.672C14.608.459,14.8.2,14.583.062Z" transform="translate(0.002 0.013)" fill="#fff"/>
  </g>
</svg>
