<svg xmlns="http://www.w3.org/2000/svg" width="50.353" height="50.868" viewBox="0 0 50.353 50.868">
  <g id="telephone" transform="translate(13.633 0.318) rotate(21)">
    <path id="パス_47" data-name="パス 47" d="M8.527,25.673A40.172,40.172,0,0,0,21.839,36.348a20.364,20.364,0,0,0,7.449,2.257c.18.008.352.016.532.016a6.1,6.1,0,0,0,4.784-2.1.174.174,0,0,0,.031-.04,20.414,20.414,0,0,1,1.509-1.6c.367-.36.743-.736,1.1-1.12A3.926,3.926,0,0,0,37.23,28l-4.7-4.81a3.765,3.765,0,0,0-2.751-1.3A3.89,3.89,0,0,0,27,23.184l-2.8,2.865c-.258-.152-.524-.288-.774-.416a9.6,9.6,0,0,1-.86-.48,29.876,29.876,0,0,1-7.074-6.594A17.532,17.532,0,0,1,13.1,14.653c.735-.68,1.423-1.392,2.087-2.089.234-.248.477-.5.719-.744a4.146,4.146,0,0,0,1.3-2.881,4.113,4.113,0,0,0-1.3-2.881L13.577,3.673c-.274-.28-.532-.552-.8-.832-.516-.544-1.055-1.1-1.587-1.609A3.854,3.854,0,0,0,8.441,0,3.968,3.968,0,0,0,5.658,1.24L2.735,4.233A6.213,6.213,0,0,0,.945,8.171a15.127,15.127,0,0,0,1.087,6.4A37.44,37.44,0,0,0,8.527,25.673ZM2.852,8.339A4.276,4.276,0,0,1,4.1,5.618L7,2.641a2.084,2.084,0,0,1,1.438-.68,1.979,1.979,0,0,1,1.407.7c.524.5,1.016,1.016,1.548,1.569.266.28.539.56.813.848l2.329,2.385a2.193,2.193,0,0,1,.735,1.5,2.193,2.193,0,0,1-.735,1.5c-.242.248-.485.5-.727.752-.727.752-1.407,1.464-2.157,2.145l-.039.04a1.591,1.591,0,0,0-.391,1.777c.008.024.016.04.023.064a18.921,18.921,0,0,0,2.744,4.57,31.533,31.533,0,0,0,7.535,7.026,11.11,11.11,0,0,0,1.032.576,9.6,9.6,0,0,1,.86.48c.031.016.055.032.086.048a1.6,1.6,0,0,0,.758.2,1.644,1.644,0,0,0,1.165-.544l2.923-2.993a2.05,2.05,0,0,1,1.43-.712,1.948,1.948,0,0,1,1.384.712l4.713,4.818a1.959,1.959,0,0,1-.023,3.017c-.328.36-.672.7-1.04,1.064a22.816,22.816,0,0,0-1.634,1.737,4.245,4.245,0,0,1-3.353,1.456c-.133,0-.274-.008-.406-.016A18.5,18.5,0,0,1,22.683,34.6,38.164,38.164,0,0,1,10.012,24.44,35.835,35.835,0,0,1,3.837,13.917,13.181,13.181,0,0,1,2.852,8.339Z" transform="translate(0)" fill="#fff" stroke="#fff" stroke-width="1"/>
  </g>
</svg>
