<svg xmlns="http://www.w3.org/2000/svg" width="21.023" height="20.161" viewBox="0 0 21.023 20.161">
  <path id="clock-solid" d="M18.511,8A10.3,10.3,0,0,0,8,18.081,10.3,10.3,0,0,0,18.511,28.161,10.3,10.3,0,0,0,29.023,18.081,10.3,10.3,0,0,0,18.511,8Zm3.92,12.723h0l-.848,1.016a.7.7,0,0,1-.953.1h0l-2.84-2.021a1.6,1.6,0,0,1-.636-1.269V12.227a.665.665,0,0,1,.678-.65H19.19a.665.665,0,0,1,.678.65v5.853l2.458,1.728A.632.632,0,0,1,22.432,20.723Z" transform="translate(-8 -8)" fill="#fff"/>
</svg>
