<svg id="instagram" xmlns="http://www.w3.org/2000/svg" xmlns:xlink="http://www.w3.org/1999/xlink" width="35.222" height="35.222" viewBox="0 0 35.222 35.222">
  <defs>
    <linearGradient id="linear-gradient" x1="0.084" y1="0.916" x2="0.916" y2="0.084" gradientUnits="objectBoundingBox">
      <stop offset="0" stop-color="#ffd600"/>
      <stop offset="0.5" stop-color="#ff0100"/>
      <stop offset="1" stop-color="#d800b9"/>
    </linearGradient>
    <linearGradient id="linear-gradient-2" x1="0.146" y1="0.854" x2="0.854" y2="0.146" gradientUnits="objectBoundingBox">
      <stop offset="0" stop-color="#ff6400"/>
      <stop offset="0.5" stop-color="#ff0100"/>
      <stop offset="1" stop-color="#fd0056"/>
    </linearGradient>
    <linearGradient id="linear-gradient-3" x1="0.146" y1="0.854" x2="0.854" y2="0.146" gradientUnits="objectBoundingBox">
      <stop offset="0" stop-color="#f30072"/>
      <stop offset="1" stop-color="#e50097"/>
    </linearGradient>
  </defs>
  <path id="パス_910" data-name="パス 910" d="M35.116,10.35A12.929,12.929,0,0,0,34.3,6.075a8.631,8.631,0,0,0-2.031-3.119A8.634,8.634,0,0,0,29.147.924,12.927,12.927,0,0,0,24.872.106C22.994.02,22.394,0,17.611,0S12.228.02,10.35.106A12.931,12.931,0,0,0,6.075.925,8.631,8.631,0,0,0,2.956,2.956,8.633,8.633,0,0,0,.924,6.075,12.928,12.928,0,0,0,.106,10.35C.02,12.228,0,12.828,0,17.611s.02,5.383.106,7.261a12.926,12.926,0,0,0,.819,4.275,8.63,8.63,0,0,0,2.031,3.119A8.629,8.629,0,0,0,6.076,34.3a12.922,12.922,0,0,0,4.275.819c1.878.086,2.478.106,7.261.106s5.383-.02,7.261-.106a12.924,12.924,0,0,0,4.275-.819,9,9,0,0,0,5.15-5.15,12.925,12.925,0,0,0,.819-4.275c.085-1.878.106-2.478.106-7.261S35.2,12.228,35.116,10.35Zm-3.17,14.377A9.744,9.744,0,0,1,31.34,28,5.832,5.832,0,0,1,28,31.34a9.744,9.744,0,0,1-3.27.606c-1.857.085-2.414.1-7.116.1s-5.26-.018-7.117-.1a9.747,9.747,0,0,1-3.27-.606A5.458,5.458,0,0,1,5.2,30.022,5.456,5.456,0,0,1,3.882,28a9.744,9.744,0,0,1-.606-3.27c-.085-1.857-.1-2.414-.1-7.116s.018-5.259.1-7.117a9.751,9.751,0,0,1,.606-3.27A5.46,5.46,0,0,1,5.2,5.2,5.453,5.453,0,0,1,7.225,3.882a9.742,9.742,0,0,1,3.27-.607c1.857-.085,2.414-.1,7.116-.1h0c4.7,0,5.259.018,7.117.1A9.745,9.745,0,0,1,28,3.882,5.46,5.46,0,0,1,30.022,5.2a5.453,5.453,0,0,1,1.317,2.025,9.735,9.735,0,0,1,.607,3.27c.085,1.857.1,2.414.1,7.116S32.031,22.87,31.946,24.728Zm0,0" transform="translate(0 0)" fill="url(#linear-gradient)"/>
  <path id="パス_911" data-name="パス 911" d="M133.582,124.539a9.043,9.043,0,1,0,9.044,9.044A9.044,9.044,0,0,0,133.582,124.539Zm0,14.914a5.87,5.87,0,1,1,5.87-5.87A5.87,5.87,0,0,1,133.582,139.453Zm0,0" transform="translate(-115.972 -115.972)" fill="url(#linear-gradient-2)"/>
  <path id="パス_912" data-name="パス 912" d="M366.156,90.739a2.113,2.113,0,1,1-2.113-2.114A2.113,2.113,0,0,1,366.156,90.739Zm0,0" transform="translate(-337.031 -82.528)" fill="url(#linear-gradient-3)"/>
</svg>
